^F:\DEVELOPMENT\C++\PROJECTS\SIZEOF AND AUTO\SIZEOF AND AUTO\DEBUG\SOURCE.OBJ
F:\DEVELOPMENT\C++\PROJECTS\SIZEOF AND AUTO\DEBUG\SIZEOF AND AUTO.EXE
F:\DEVELOPMENT\C++\PROJECTS\SIZEOF AND AUTO\DEBUG\SIZEOF AND AUTO.ILK
F:\DEVELOPMENT\C++\PROJECTS\SIZEOF AND AUTO\DEBUG\SIZEOF AND AUTO.PDB
