^E:\DEVELOPMENT\C++\PROJECTS\EPISODE 11 - MULTIDIMENSIONAL ARRAYS\EPISODE 11 - MULTIDIMENSIONAL ARRAYS\DEBUG\SOURCE.OBJ
E:\DEVELOPMENT\C++\PROJECTS\EPISODE 11 - MULTIDIMENSIONAL ARRAYS\DEBUG\EPISODE 11 - MULTIDIMENSIONAL ARRAYS.EXE
E:\DEVELOPMENT\C++\PROJECTS\EPISODE 11 - MULTIDIMENSIONAL ARRAYS\DEBUG\EPISODE 11 - MULTIDIMENSIONAL ARRAYS.ILK
E:\DEVELOPMENT\C++\PROJECTS\EPISODE 11 - MULTIDIMENSIONAL ARRAYS\DEBUG\EPISODE 11 - MULTIDIMENSIONAL ARRAYS.PDB
